MultiModeCounter/simulation/modelsim/msim_transcript
# Reading D:/distr/programming/fpga/intelFPGA/18.1/sim/modelsim_ase/tcl/vsim/pref.tcl
# do MultiModeCounter_run_msim_rtl_verilog.do
# if {[file exists rtl_work]} {
# 	vdel -lib rtl_work -all
# }
# vlib rtl_work
# vmap work rtl_work
# Model Technology ModelSim - Intel FPGA Edition vmap 10.5b Lib Mapping Utility 2016.10 Oct  5 2016
# vmap work rtl_work 
# Copying D:/distr/programming/fpga/intelFPGA/18.1/sim/modelsim_ase/win32aloem/../modelsim.ini to modelsim.ini
# Modifying modelsim.ini
# 
# vlog -vlog01compat -work work +incdir+D:/projects/training/fpga/AIlearning/MultiModeCounter {D:/projects/training/fpga/AIlearning/MultiModeCounter/MultiModeCounter.v}
# Model Technology ModelSim - Intel FPGA Edition vlog 10.5b Compiler 2016.10 Oct  5 2016
# Start time: 22:29:41 on Sep 08,2024
# vlog -reportprogress 300 -vlog01compat -work work "+incdir+D:/projects/training/fpga/AIlearning/MultiModeCounter" D:/projects/training/fpga/AIlearning/MultiModeCounter/MultiModeCounter.v 
# -- Compiling module MultiModeCounter
# 
# Top level modules:
# 	MultiModeCounter
# End time: 22:29:41 on Sep 08,2024, Elapsed time: 0:00:00
# Errors: 0, Warnings: 0
# 
vlog -reportprogress 300 -work work D:/projects/training/fpga/AIlearning/MultiModeCounter/tbMultiModeCounter.v
# Model Technology ModelSim - Intel FPGA Edition vlog 10.5b Compiler 2016.10 Oct  5 2016
# Start time: 22:29:50 on Sep 08,2024
# vlog -reportprogress 300 -work work D:/projects/training/fpga/AIlearning/MultiModeCounter/tbMultiModeCounter.v 
# -- Compiling module tbMultiModeCounter
# 
# Top level modules:
# 	tbMultiModeCounter
# End time: 22:29:50 on Sep 08,2024, Elapsed time: 0:00:00
# Errors: 0, Warnings: 0
vsim work.tbMultiModeCounter
# vsim work.tbMultiModeCounter 
# Start time: 22:29:52 on Sep 08,2024
# Loading work.tbMultiModeCounter
# Loading work.MultiModeCounter
add wave -position insertpoint  \
sim:/tbMultiModeCounter/clk \
sim:/tbMultiModeCounter/reset \
sim:/tbMultiModeCounter/load \
sim:/tbMultiModeCounter/upDown \
sim:/tbMultiModeCounter/loadValue \
sim:/tbMultiModeCounter/count
run -all
# Time: 0 | count: 0000 | reset: 1 | load: 0 | upDown: 0 | loadValue: 0000
# Time: 10 | count: 0000 | reset: 0 | load: 1 | upDown: 0 | loadValue: 1010
# Time: 11 | count: 1010 | reset: 0 | load: 1 | upDown: 0 | loadValue: 1010
# Time: 20 | count: 1010 | reset: 0 | load: 0 | upDown: 1 | loadValue: 1010
# Time: 21 | count: 1011 | reset: 0 | load: 0 | upDown: 1 | loadValue: 1010
# Time: 23 | count: 1100 | reset: 0 | load: 0 | upDown: 1 | loadValue: 1010
# Time: 25 | count: 1101 | reset: 0 | load: 0 | upDown: 1 | loadValue: 1010
# Time: 27 | count: 1110 | reset: 0 | load: 0 | upDown: 1 | loadValue: 1010
# Time: 29 | count: 1111 | reset: 0 | load: 0 | upDown: 1 | loadValue: 1010
# Time: 30 | count: 1111 | reset: 0 | load: 0 | upDown: 0 | loadValue: 1010
# Time: 31 | count: 1110 | reset: 0 | load: 0 | upDown: 0 | loadValue: 1010
# Time: 33 | count: 1101 | reset: 0 | load: 0 | upDown: 0 | loadValue: 1010
# Time: 35 | count: 1100 | reset: 0 | load: 0 | upDown: 0 | loadValue: 1010
# Time: 37 | count: 1011 | reset: 0 | load: 0 | upDown: 0 | loadValue: 1010
# Time: 39 | count: 1010 | reset: 0 | load: 0 | upDown: 0 | loadValue: 1010
# Time: 40 | count: 1010 | reset: 0 | load: 1 | upDown: 0 | loadValue: 0011
# Time: 41 | count: 0011 | reset: 0 | load: 1 | upDown: 0 | loadValue: 0011
# Time: 50 | count: 0011 | reset: 0 | load: 0 | upDown: 1 | loadValue: 0011
# Time: 51 | count: 0100 | reset: 0 | load: 0 | upDown: 1 | loadValue: 0011
# Time: 53 | count: 0101 | reset: 0 | load: 0 | upDown: 1 | loadValue: 0011
# Time: 55 | count: 0110 | reset: 0 | load: 0 | upDown: 1 | loadValue: 0011
# Time: 57 | count: 0111 | reset: 0 | load: 0 | upDown: 1 | loadValue: 0011
# Time: 59 | count: 1000 | reset: 0 | load: 0 | upDown: 1 | loadValue: 0011
# ** Note: $stop    : D:/projects/training/fpga/AIlearning/MultiModeCounter/tbMultiModeCounter.v(55)
#    Time: 60 ms  Iteration: 0  Instance: /tbMultiModeCounter
# Break in Module tbMultiModeCounter at D:/projects/training/fpga/AIlearning/MultiModeCounter/tbMultiModeCounter.v line 55
# End time: 22:30:18 on Sep 08,2024, Elapsed time: 0:00:26
# Errors: 0, Warnings: 0
